…
    value_i <- value_i  |> 
               auscensus::calculate_percentage(key_col = "Attribute",
                                                value_col = "Value",
                                                key_value = "Total",
                                                percentage_scale = 100)

   citizenship_ced <- bind_rows(citizenship_ced,value_i)


 }


citizenship_ced 
#> # A tibble: 595 × 6
#>    Unit       Year Attribute            Value  Total Percentage
#>    <chr>     <dbl> <chr>                <dbl>  <dbl>      <dbl>
#>  1 Adelaide   2006 Australian Citizens 115908 140151       82.7
#>  2 Aston      2006 Australian Citizens 115010 129463       88.8
#>  3 Ballarat   2006 Australian Citizens 118247 129221       91.5
#>  4 Banks      2006 Australian Citizens 104181 118371       88.0
#>  5 Barker     2006 Australian Citizens 133033 145410       91.5
#>  6 Barton     2006 Australian Citizens 105287 131234       80.2
#>  7 Bass       2006 Australian Citizens  85631  94270       90.8
#>  8 Batman     2006 Australian Citizens 105561 128107       82.4
#>  9 Bendigo    2006 Australian Citizens 121930 131885       92.5
#> 10 Bennelong  2006 Australian Citizens 104473 129340       80.8
#> # … with 585 more rows
```
