…
The first thing to figure out what data points are going to be retrieved. In order to answer that, the following questions need to be answered:

- Which statistics do I want to pull, i.e. which data point from which table?
- Which geographical structure do I want  (e.g. SAs, LGAs, electorates)? Do i want data for all of them or just a handful?
- For which years do I want the data?

To answer those questions, {auscensus} comes with a family of functions, all starting with *list_*.

To figure out where is the data point to retrieve, the first step to retrieve a list of available tables, which will return their code plus the year when they have been published. this can be achieved with *list_census_tables()* 


```r
list_census_tables()
#> # A tibble: 165 × 7
#>    Number `Table Name`                                                            `Table Population`                   `2021` `2016` `2011` `2006`
#>    <chr>  <chr>                                                                   <chr>                                <lgl>  <lgl>  <lgl>  <lgl> 
#>  1 01     Selected Person Characteristics by Sex                                  Persons                              TRUE   TRUE   TRUE   NA    
#>  2 01     Selected Person Characteristics by Sex (First Release Processing)       Persons                              NA     NA     NA     TRUE  
#>  3 02     Selected Medians and Averages                                           NA                                   TRUE   TRUE   TRUE   TRUE  
#>  4 03     Place of Usual Residence by Place of Enumeration on Census Night by Age Persons (excludes overseas visitors) TRUE   NA     NA     NA    
#>  5 03     Place of Usual Residence on Census Night by Age                         Persons                              NA     TRUE   TRUE   TRUE  
#>  6 04     Age by Sex                                                              Persons                              TRUE   TRUE   TRUE   TRUE  
#>  7 05     Registered Marital Status by Age by Sex                                 Persons aged 15 years and over       TRUE   TRUE   TRUE   TRUE  
#>  8 06     Social Marital Status by Age by Sex                                     Persons aged 15 years and over       TRUE   TRUE   TRUE   TRUE  
#>  9 07     Indigenous Status by Age by Sex                                         Persons                              TRUE   TRUE   TRUE   TRUE  
#> 10 08     Ancestry by Country of Birth of Parents                                 Responses and persons                TRUE   TRUE   NA     TRUE  
#> # … with 155 more rows
```
…
To get which geographical structures are available, *list_census_geo_types()* can help. Once selected an appropriate value, *list_census_geo()* can be used to search for particular divisions. In the example below, we are confirming if data is available for three inner-Melbourne Local Government areas.


```r
list_census_geo_types()
#> # A tibble: 31 × 5
#>    ASGS_Structure `2021` `2016` `2011` `2006`
#>    <chr>          <lgl>  <lgl>  <lgl>  <lgl> 
#>  1 AUS            TRUE   TRUE   TRUE   TRUE  
#>  2 CD             NA     NA     NA     TRUE  
#>  3 CED            TRUE   TRUE   TRUE   TRUE  
#>  4 GCCSA          TRUE   TRUE   TRUE   NA    
#>  5 IARE           TRUE   TRUE   TRUE   TRUE  
#>  6 ILOC           TRUE   TRUE   TRUE   TRUE  
#>  7 IREG           TRUE   TRUE   TRUE   TRUE  
#>  8 JWSLA          NA     NA     NA     TRUE  
#>  9 JWSLA_extended NA     NA     NA     TRUE  
#> 10 LGA            TRUE   TRUE   TRUE   TRUE  
#> # … with 21 more rows
```
…
names(data)   
#> [1] "2006_LGA_B04" "2011_LGA_B04" "2016_LGA_G04" "2021_LGA_G04"
```


```r
data$`2006_LGA_B04`
#> # A tibble: 685 × 309
#>     Year Census_Code Unit  Age (…¹ Age (…² Age (…³ Age (…⁴ Age (…⁵ Age (…⁶ Age (…⁷ Age (…⁸ Age (…⁹ Age (…˟ Age (…˟ Age (…˟ Age (…˟ Age (…˟ Age (…˟ Age (…˟
#>    <dbl> <chr>       <chr>   <int>   <int>   <int>   <int>   <int>   <int>   <int>   <int>   <int>   <int>   <int>   <int>   <int>   <int>   <int>   <int>
#>  1  2006 LGA89399    Unin…    9798   10282    2121   20080    2214   10436    4335   10924   21360      16       7      23    2021    2068    4089    2094
#>  2  2006 LGA89499    No U…      21      26       4      47       6      18      10       8      26       0       0       0       3       0       3       3
#>  3  2006 LGA10050    Albu…    1490    1524     305    3014     337    1675     642    1747    3422       8       4      12     305     326     631     357
#>  4  2006 LGA10110    Armi…     660     704     144    1364     137     910     281     899    1809       0       0       0     163     157     320     173
#>  5  2006 LGA10150    Ashf…    1048    1162     246    2210     265     943     511     967    1910      14       0      14     199     201     400     171
#>  6  2006 LGA10200    Aubu…    2383    2516     562    4899     541    2049    1103    2174    4223       0       5       5     420     451     871     434
#>  7  2006 LGA10250    Ball…     997    1015     197    2012     191    1370     388    1384    2754       7       0       7     256     273     529     246
#>  8  2006 LGA10300    Balr…      76      87      16     163       8      82      24      93     175       0       0       0      15      15      30      18
#>  9  2006 LGA10350    Bank…    6130    6578    1240   12708    1331    5957    2571    6468   12425      14       3      17    1202    1257    2459    1189
#> 10  2006 LGA10470    Bath…    1115    1240     227    2355     276    1272     503    1337    2609       6       0       6     243     254     497     234
#> # … with 675 more rows, 290 more variables: `Age (Years) 11_males` <int>, `Age (Years) 11_persons` <int>, `Age (Years) 12_females` <int>,
#> #   `Age (Years) 12_males` <int>, `Age (Years) 12_persons` <int>, `Age (Years) 13_females` <int>, `Age (Years) 13_males` <int>,
#> #   `Age (Years) 13_persons` <int>, `Age (Years) 14_females` <int>, `Age (Years) 14_males` <int>, `Age (Years) 14_persons` <int>,
#> #   `Age (Years) 15-19 Years_females` <int>, `Age (Years) 15-19 Years_males` <int>, `Age (Years) 15-19 Years_persons` <int>,
#> #   `Age (Years) 15_females` <int>, `Age (Years) 15_males` <int>, `Age (Years) 15_persons` <int>, `Age (Years) 16_males` <int>,
#> #   `Age (Years) 16_females` <int>, `Age (Years) 16_persons` <int>, `Age (Years) 17_females` <int>, `Age (Years) 17_males` <int>,
#> #   `Age (Years) 17_persons` <int>, `Age (Years) 18_females` <int>, `Age (Years) 18_males` <int>, `Age (Years) 18_persons` <int>, …
```
…
```r

get_census_summary(table_number = "04",
                   attribute = list("60 year old male"=c("Age_years_60_males","Age (Years): 60_males"),
                                     "60 year old female"=c("Age_years_60_males","Age (Years): 60_females")),
                   geo_structure = "LGA")
#> ERROR : [EBUSY] Failed to remove 'C:/Users/carlo/OneDrive/Documents/.auscensus_cache/LGA_Vic_B04_A.csv': resource busy or locked 
#> ERROR : [EBUSY] Failed to remove 'C:/Users/carlo/OneDrive/Documents/.auscensus_cache/LGA_Vic_B04_A.csv': resource busy or locked 
#> ERROR : [EBUSY] Failed to remove 'C:/Users/carlo/OneDrive/Documents/.auscensus_cache/2011Census_B04A_AUST_LGA_short.csv': resource busy or locked 
#> ERROR : [EBUSY] Failed to remove 'C:/Users/carlo/OneDrive/Documents/.auscensus_cache/2016Census_G04A_AUS_LGA.csv': resource busy or locked 
#> ERROR : [EBUSY] Failed to remove 'C:/Users/carlo/OneDrive/Documents/.auscensus_cache/2021Census_G04A_AUST_LGA.csv': resource busy or locked
#> # A tibble: 3,075 × 5
#>    Census_Code Unit               Year Attribute          Value
#>    <chr>       <chr>             <dbl> <chr>              <int>
#>  1 LGA10050    Albury             2006 60 year old female   217
#>  2 LGA10050    Albury             2006 60 year old male     229
#>  3 LGA10110    Armidale Dumaresq  2006 60 year old female   122
#>  4 LGA10110    Armidale Dumaresq  2006 60 year old male     112
#>  5 LGA10150    Ashfield           2006 60 year old female   157
#>  6 LGA10150    Ashfield           2006 60 year old male     164
#>  7 LGA10200    Auburn             2006 60 year old female   210
#>  8 LGA10200    Auburn             2006 60 year old male     283
#>  9 LGA10250    Ballina            2006 60 year old female   217
#> 10 LGA10250    Ballina            2006 60 year old male     230
#> # … with 3,065 more rows
```
…
