Auscensus - Getting Data • auscensus
…
Which geographical structure do I want (e.g. SAs, LGAs,
electorates)? Do i want data for all of them or just a handful?

For which years do I want the data?

To answer those questions, {auscensus} comes with a family of
functions, all starting with list_.

To figure out where is the data point to retrieve, the first step to
retrieve a list of available tables, which will return their code plus
the year when they have been published. this can be achieved with
list_census_tables()

list_census_tables()
#> # A tibble: 165 × 7
#>    Number `Table Name`                                                            `Table Population`                   `2021` `2016` `2011` `2006`
#>    <chr>  <chr>                                                                   <chr>                                <lgl>  <lgl>  <lgl>  <lgl> 
#>  1 01     Selected Person Characteristics by Sex                                  Persons                              TRUE   TRUE   TRUE   NA    
#>  2 01     Selected Person Characteristics by Sex (First Release Processing)       Persons                              NA     NA     NA     TRUE  
#>  3 02     Selected Medians and Averages                                           NA                                   TRUE   TRUE   TRUE   TRUE  
#>  4 03     Place of Usual Residence by Place of Enumeration on Census Night by Age Persons (excludes overseas visitors) TRUE   NA     NA     NA    
#>  5 03     Place of Usual Residence on Census Night by Age                         Persons                              NA     TRUE   TRUE   TRUE  
#>  6 04     Age by Sex                                                              Persons                              TRUE   TRUE   TRUE   TRUE  
#>  7 05     Registered Marital Status by Age by Sex                                 Persons aged 15 years and over       TRUE   TRUE   TRUE   TRUE  
#>  8 06     Social Marital Status by Age by Sex                                     Persons aged 15 years and over       TRUE   TRUE   TRUE   TRUE  
#>  9 07     Indigenous Status by Age by Sex                                         Persons                              TRUE   TRUE   TRUE   TRUE  
#> 10 08     Ancestry by Country of Birth of Parents                                 Responses and persons                TRUE   TRUE   NA     TRUE  
#> # … with 155 more rows
…
To get which geographical structures are available,
list_census_geo_types() can help. Once selected an appropriate
value, list_census_geo() can be used to search for particular
divisions. In the example below, we are confirming if data is available
for three inner-Melbourne Local Government areas.

list_census_geo_types()
#> # A tibble: 31 × 5
#>    ASGS_Structure `2021` `2016` `2011` `2006`
#>    <chr>          <lgl>  <lgl>  <lgl>  <lgl> 
#>  1 AUS            TRUE   TRUE   TRUE   TRUE  
#>  2 CD             NA     NA     NA     TRUE  
#>  3 CED            TRUE   TRUE   TRUE   TRUE  
#>  4 GCCSA          TRUE   TRUE   TRUE   NA    
#>  5 IARE           TRUE   TRUE   TRUE   TRUE  
#>  6 ILOC           TRUE   TRUE   TRUE   TRUE  
#>  7 IREG           TRUE   TRUE   TRUE   TRUE  
#>  8 JWSLA          NA     NA     NA     TRUE  
#>  9 JWSLA_extended NA     NA     NA     TRUE  
#> 10 LGA            TRUE   TRUE   TRUE   TRUE  
#> # … with 21 more rows
…
Retrieving Census Data

Once the questions have been resolved, it is possible to use
{auscensus} to retrieve the data with get_census_data(). This
function will present the result for each {table, year, geopgrahy}
combination as a different element within a list. For example:

data <- get_census_data(census_table = list_census_tables("04"),
                        geo_structure = "LGA")
  
names(data)   
#> [1] "2006_LGA_B04" "2011_LGA_B04" "2016_LGA_G04" "2021_LGA_G04"

data$`2006_LGA_B04`
#> # A tibble: 685 × 309
#>     Year Unit     Censu…¹ Age (…² Age (…³ Age (…⁴ Age (…⁵ Age (…⁶ Age (…⁷ Age (…⁸ Age (…⁹ Age (…˟ Age (…˟ Age (…˟ Age (…˟ Age (…˟ Age (…˟ Age (…˟ Age (…˟ Age (…˟ Age (…˟
#>    <dbl> <chr>    <chr>     <dbl>   <dbl>   <dbl>   <dbl>   <dbl>   <dbl>   <dbl>   <dbl>   <dbl>   <dbl>   <dbl>   <dbl>   <dbl>   <dbl>   <dbl>   <dbl>   <dbl>   <dbl>
#>  1  2006 Unincor… LGA893…    2214    2121    4335    2018    1948    3966    2091    1947    4038    2033    1856    3889    1926    1926    3852   10282    9798   20080
#>  2  2006 No Usua… LGA894…       6       4      10       5       7      12       6       3       9       4       3       7       5       4       9      26      21      47
#>  3  2006 Albury   LGA100…     337     305     642     313     307     620     267     286     553     309     296     605     298     296     594    1524    1490    3014
#>  4  2006 Armidal… LGA101…     137     144     281     132     128     260     146     127     273     125     129     254     164     132     296     704     660    1364
#>  5  2006 Ashfield LGA101…     265     246     511     232     200     432     219     209     428     235     183     418     211     210     421    1162    1048    2210
#>  6  2006 Auburn   LGA102…     541     562    1103     545     468    1013     510     473     983     457     458     915     463     422     885    2516    2383    4899
#>  7  2006 Ballina  LGA102…     191     197     388     190     176     366     218     194     412     197     207     404     219     223     442    1015     997    2012
#>  8  2006 Balrana… LGA103…       8      16      24      28      12      40      19      13      32      16      21      37      16      14      30      87      76     163
#>  9  2006 Banksto… LGA103…    1331    1240    2571    1337    1239    2576    1286    1241    2527    1367    1215    2582    1257    1195    2452    6578    6130   12708
#> 10  2006 Bathurs… LGA104…     276     227     503     225     222     447     240     223     463     248     202     450     251     241     492    1240    1115    2355
#> # … with 675 more rows, 288 more variables: `Age (Years): 5_males` <dbl>, `Age (Years): 5_females` <dbl>, `Age (Years): 5_persons` <dbl>, `Age (Years): 6_males` <dbl>,
#> #   `Age (Years): 6_females` <dbl>, `Age (Years): 6_persons` <dbl>, `Age (Years): 7_males` <dbl>, `Age (Years): 7_females` <dbl>, `Age (Years): 7_persons` <dbl>,
#> #   `Age (Years): 8_males` <dbl>, `Age (Years): 8_females` <dbl>, `Age (Years): 8_persons` <dbl>, `Age (Years): 9_males` <dbl>, `Age (Years): 9_females` <dbl>,
#> #   `Age (Years): 9_persons` <dbl>, `Age (Years): 5-9 Years_males` <dbl>, `Age (Years): 5-9 Years_females` <dbl>, `Age (Years): 5-9 Years_persons` <dbl>,
#> #   `Age (Years): 10_males` <dbl>, `Age (Years): 10_females` <dbl>, `Age (Years): 10_persons` <dbl>, `Age (Years): 11_males` <dbl>, `Age (Years): 11_females` <dbl>,
#> #   `Age (Years): 11_persons` <dbl>, `Age (Years): 12_males` <dbl>, `Age (Years): 12_females` <dbl>, `Age (Years): 12_persons` <dbl>, `Age (Years): 13_males` <dbl>,
#> #   `Age (Years): 13_females` <dbl>, `Age (Years): 13_persons` <dbl>, `Age (Years): 14_males` <dbl>, `Age (Years): 14_females` <dbl>, `Age (Years): 14_persons` <dbl>, …
…
Getting ready to use summaries

Although get_census_data(), provides great flexibility for
data processing, in most cases, it is just of interest to get just a
table with a limited number of variables for analysis. For this purpose,
this package provides get_census_summary(). For instance, if we
are only interested in getting the numbers for 60-year-old men by LGA in
the 2021 census (see above), we can use:

get_census_summary(table_number = "04",
                   attributes = "Age_years_60_males",
                   geo_structure = "LGA",
                   selected_years = "2021")
#> # A tibble: 565 × 4
#>     Year Unit              Attribute          Value
#>    <dbl> <chr>             <chr>              <dbl>
#>  1  2021 Albury            Age_years_60_males   368
#>  2  2021 Armidale Regional Age_years_60_males   157
#>  3  2021 Ballina           Age_years_60_males   325
#>  4  2021 Balranald         Age_years_60_males    17
#>  5  2021 Bathurst Regional Age_years_60_males   306
#>  6  2021 Bayside (Nsw)     Age_years_60_males   854
#>  7  2021 Bega Valley       Age_years_60_males   332
#>  8  2021 Bellingen         Age_years_60_males   103
#>  9  2021 Berrigan          Age_years_60_males    68
#> 10  2021 Blacktown         Age_years_60_males  1906
#> # … with 555 more rows

Data point or “attribute” names sometimes change from Census to
Census. For this purpose, the attribute can be either a vector
or strings or a named list, containing all equivalent attribute names.
For instance, to get the number of 60-year-old men and women across all
censuses (all years included by default):

get_census_summary(table_number = "04",
                   attributes = list("60 year old male"=c("Age_years_60_males","Age (Years): 60_males"),
                                     "60 year old female"=c("Age_years_60_males","Age (Years): 60_females")),
                   geo_structure = "LGA")
#> # A tibble: 3,075 × 4
#>     Year Unit               Attribute          Value
#>    <dbl> <chr>              <chr>              <dbl>
#>  1  2006 Unincorporated Act 60 year old male    1702
#>  2  2006 Unincorporated Act 60 year old female  1588
#>  3  2006 No Usual Address   60 year old male       3
#>  4  2006 No Usual Address   60 year old female     3
#>  5  2006 Albury             60 year old male     229
#>  6  2006 Albury             60 year old female   217
#>  7  2006 Armidale Dumaresq  60 year old male     112
#>  8  2006 Armidale Dumaresq  60 year old female   122
#>  9  2006 Ashfield           60 year old male     164
#> 10  2006 Ashfield           60 year old female   157
#> # … with 3,065 more rows
…
